{
    "organizations": {
        "id": "org-33fb6fd0-6c20-11e9-a923-1681be663d3e",
        "name": "Cavespace Exploration",
        "server": [
        {
            "id": "169b102f-c9f6-40fb-b3a0-807da7426e9a",
            "name": "GLUID",
            "description": "Aliquip nisi irure Lorem sit proident adipisicing occaecat culpa nulla culpa consectetur adipisicing nostrud. Culpa ut cillum est voluptate dolore aute aliqua culpa proident. Commodo consequat nulla labore deserunt.",
            "cpu": {
            "count": 1,
            "speed": "STANDARD",
            "coresPerSocket": 8
            },
            "memoryGb": 16,
            "network": {
            "id": "a1e69227-2ad1-46bb-98a3-cefeed9ec16a",
            "privateIpv4": "10.0.0.3",
            "vlanId": "172a515c-b152-495f-924a-d0580afd9b6a",
            "vlanName": "Product Management"
            },
            "createTime": "2019-11-13T15:53:21.000Z",
            "deployed": true,
            "started": true,
            "state": "MAINTENANCE"
        },
        {
            "id": "840ea23d-b5ab-4874-ad49-ebfd1733cca6",
            "name": "MAXEMIA",
            "description": "Sit culpa exercitation culpa consectetur Lorem nostrud nulla ex ad cupidatat sint ad quis. Aute magna labore nostrud sint aliqua mollit. Ex fugiat commodo excepteur aliqua. Occaecat elit ea aliqua deserunt amet nostrud exercitation consequat. Occaecat dolor aute exercitation quis amet duis.",
            "cpu": {
            "count": 2,
            "speed": "HIGHPERFORMANCE",
            "coresPerSocket": 8
            },
            "memoryGb": 4,
            "network": {
            "id": "17c641d6-daf0-4895-a02d-23417d8eeace",
            "privateIpv4": "10.0.0.5",
            "vlanId": "c203f9a0-e9a9-4a16-82f9-313afa20af5e",
            "vlanName": "Product Management"
            },
            "createTime": "2018-12-14T08:27:59.000Z",
            "deployed": true,
            "started": false,
            "state": "FAILED"
        }
        ]
    }
}